*** Life<FredkinCell> 9x6 ***

Generation = 0, Population = 54.
000000
000000
000000
000000
000000
000000
000000
000000
000000

*** Life<FredkinCell> 16x23 ***

Generation = 0, Population = 167.
--------000--00-00--0-0
0-0---0-0--0-00---0--00
---0--000-0----0-0-00--
--00-0--0--000----0-00-
0000---0----00-0-0--0--
0000----0-0--00--00----
-0--0----00-000---0-0--
--00----00-000000--0-00
-0-00-000-0--0---------
--00-0---0000------00-0
0000-0---0--000--000000
00-0-0-0-0---00--00000-
0000-------0-000000---0
00----000-0--0-000-000-
-----0-----00--0-0-00--
-0--0----00---0000-0---

*** Life<FredkinCell> 23x4 ***

Generation = 0, Population = 12.
----
----
--0-
---0
----
0---
----
----
---0
----
--0-
----
0--0
----
-0--
0---
----
0---
---0
--0-
----
----
----

Generation = 5, Population = 51.
00-0
20--
30-0
---0
-0--
-0--
--01
0001
-3-3
-000
1-10
20-0
12-1
-0-0
-220
0000
-0--
00--
----
-0-0
0-0-
-0-0
0-0-

Generation = 10, Population = 46.
101-
722-
5---
--13
4--5
433-
2201
1---
1-13
---1
60-3
40-2
13--
--20
1-33
----
--10
--2-
-3-2
----
1--0
----
00-0

Generation = 15, Population = 54.
--11
--21
70--
2534
--48
7-4-
----
3-14
--26
4---
7144
9-34
2442
-222
1-3-
--33
-043
4-3-
-4--
2010
-22-
--1-
3-12

Generation = 20, Population = 42.
-2-3
9---
8235
2785
8-7-
7-9-
36--
-2-4
--5-
9---
91--
-4--
---7
3---
-5--
----
--7-
7-5-
26-3
-14-
2372
1---
4--3

Generation = 25, Population = 42.
3-3-
-6--
+3--
---5
+4-+
85+1
3---
-5--
5---
+04-
+--6
+-47
4-5-
----
1---
-0-3
----
+16-
47--
-3-3
2-+-
-11-
7-3-

Generation = 30, Population = 43.
5---
-832
-44-
-+--
---+
---2
---7
5-35
-7-+
-06-
----
+-4-
56-8
-333
--5-
628-
-2--
-2+-
-+27
96-3
-4+-
---2
93--

Generation = 35, Population = 49.
-6-4
+944
+7--
-+--
+4-+
--+3
--6-
5-5-
-+7+
+---
--++
+6-+
--89
73--
37-5
--9-
3---
+3-5
5+--
+86-
--+4
-34-
+5--

Generation = 40, Population = 31.
-9-6
+---
+-5-
9---
-4--
--+-
----
--5-
-+--
+---
-2--
--8+
5-++
7---
-+-6
+---
-2-5
--+-
6--7
-+-7
4-+-
4---
----

Generation = 45, Population = 40.
---9
-96-
-+--
+--+
----
+-+5
----
-65-
+---
+07-
+3--
-+8+
----
-4-4
--5-
-49-
62+-
--+-
-+--
+---
77-8
9-5-
+695

*** Life<FredkinCell> 4x5 ***

Generation = 0, Population = 16.
0000-
0-000
00-00
0000-

Generation = 9, Population = 6.
--356
-4---
---21
-----

Generation = 18, Population = 10.
-367+
--02-
-4-6-
--0-0

Generation = 27, Population = 8.
--9++
-8---
76---
-9-5-

Generation = 36, Population = 16.
69++-
0-060
99-+6
0+06-

Generation = 45, Population = 6.
--+++
-+---
---+7
-----

Generation = 54, Population = 10.
-++++
--08-
-+-+-
--0-0

Generation = 63, Population = 8.
--+++
-+---
++---
-+-+-

Generation = 72, Population = 16.
++++-
0-0+0
++-++
0+0+-

*** Life<FredkinCell> 12x16 ***

Generation = 0, Population = 84.
-0--0-0---0-----
-----000000-0-00
-00-00-00--0---0
0----00-0-0--00-
--0-0-000--0--0-
000--0--0-0--0-0
-00--00-----0---
---0---00--0----
-00-000-0-0-00--
--00-000---0-000
----0--00-000--0
---00--0--00-00-

Generation = 10, Population = 97.
70----23-44--1-3
8-0--33--02-2-31
---7----5-322-6-
-4-43053031-26--
---1--43-03-2-3-
--5--6--52-0---2
4---13-3-4---31-
-1-302-65--21-34
3--136218086-112
-------12-------
2---4-02--01-774
--32-7--1-4-1442

Generation = 20, Population = 111.
7-445-399---4226
+2-------1-7----
44-+457-+-64-4+-
-6-532+9785--+-3
-5--664---5--+-8
8-95---295--2-3-
---05-94-7787-81
-435---+--6466-4
---5-+33-4-79--5
1--6--+533845-33
-1517-23-51517+5
-78--+-3-3-5--83

Generation = 30, Population = 105.
9-8--6-++-6-753-
+21--+-2-4-+-245
567-9+-5+99-97+7
6-8--4-+-9+-4--5
-----++7-4+7-+--
-+-6--1--65--6-8
---3-6+-+7-+-+93
96--1-+-+77-8895
6--6--5----++66-
5--9-6+73--49-4-
--95+976---55-+9
-9-8---8-6--5---

Generation = 40, Population = 95.
-6------+98---3-
---5---5-+7-7--5
-9++------++--+-
-++7--+++-++++9+
-+-7-+-9+-+-8+-+
----7+--+9-68-+9
--+5--+-++--++--
++4-2+-+--+++-+-
9+---+87------+-
6+2+----7-+6--8-
55-9++--+-7-9--+
++--+-7+59-8--9-

Generation = 50, Population = 98.
+++++++-+-+----+
--3-++8-++8----5
8-+-+++-----++--
--+-+9+++-++---+
++8-+--++---+---
+-+---------+9+9
-+-9+--++-+---+-
----4--++----++-
-+--+--++8-+-+--
8+2++--+94--+++9
6--+---+++++++-+
-+++-+++++---+-+

Generation = 60, Population = 91.
++++++-+++-+--6+
-6-+-++6+-----79
9--++-+++--++-+-
----+----++---++
-+---++--++-+-+-
--+++-3---7--+--
---+-+-+---+----
++8---+---+++++-
+++-++----+-+---
--2--+++-8--+-+-
--+-----+-++---+
+-+++++++-+++--+

Generation = 70, Population = 94.
-+-+++-+-++--+--
++--+++8-+----+-
-+--+-++-+++++--
-+-+---++-+---+-
----+--++-++++++
+-+-++7--++-+-++
+-++-----++++-++
+-9++------+++--
+++---++--+-++-+
--5+-+-+-------+
+----+-+-+-+-++-
+--+++--+-++----

Generation = 80, Population = 82.
----+-++------8+
+---+-+-+--+----
++-+----++--+--+
---++++-+++-+++-
----+----+++++++
+--+-+--+--+-+--
+---------++-+-+
+-++-++--++-----
--+--++-+++--++-
+--+++-+++-+---+
---++---++------
+++-+--+-++----+

Generation = 90, Population = 90.
++-+++-+---+----
----+----+++-+-+
-----+-+-+-+-+++
+-----+--++++---
-+++-++---+--+--
++++--+--+-+-+++
---+-+-+---++++-
+-+-+++----+----
+---+-++++--++--
--9++--+++-++++-
--+-+----+-+++--
++++++--++--++--

*** Life<FredkinCell> 4x2 ***

Generation = 0, Population = 8.
00
00
00
00

Generation = 10, Population = 4.
--
44
44
--

Generation = 20, Population = 4.
66
--
--
66

Generation = 30, Population = 8.
++
++
++
++

Generation = 40, Population = 4.
--
++
++
--

*** Life<FredkinCell> 21x11 ***

Generation = 0, Population = 102.
0--00------
00-000-0-00
0------000-
-0-0-0-000-
--0-000---0
0--00---0-0
------0--0-
000----0---
0-000-00--0
00----00-0-
--0-00-----
-----0--0-0
--00--00-00
00--0-----0
000--0-----
--0-0-00--0
000-000--0-
0-00--0-00-
0----0-0-0-
-0--0--000-
--0---00000

Generation = 9, Population = 102.
---1--3---3
533-42--22-
-11-254-3-4
-3-1------7
0--3--5--44
3--4-60222-
1----1---14
-----41---4
--20-------
2----20---1
3-42-2-3-3-
------10---
425-40--236
4024----12-
-5-2-36-0--
0-1370-4-1-
-03--27----
---152---25
----5---5--
1---3-0-442
2213-4-2---

Generation = 18, Population = 98.
7-3--33-38-
-6----37--6
--8--6-56--
0864-7--3--
2-6-----1--
-----------
3-3362-3--5
4----6276-6
4-7----4-32
--3-86-2-43
6---764-34-
-----4-1---
6-8-7----9-
-3446--834-
7-8--------
346-84---5-
3-7--8+4-64
33--6-5----
8-5-734---8
----4--8-6-
-6--2-45---

Generation = 27, Population = 117.
+-3-5---6+5
9-95-3-----
---6-8-6-4-
1-+-5+--7--
---449+83-6
--8+8---68-
--568327-56
-2843-2+7--
74++-+1--33
5--2-714--5
--+6+---8--
----67-56--
----+325-+-
8765--4-4-9
+8-45----46
-4--+63--+-
55+----9--7
577----4-8-
-78-+49+-8-
---38---8-7
7------9++7

Generation = 36, Population = 120.
+28-+---++-
+-+-975+-79
+7-----8--+
2+---+--+7+
-5-4--+--+-
5---+--7+-9
-+88---+---
57---8-+-28
-9-+-+-86-5
--+4----698
---++--+-4-
-66+888-9--
--+6---8-++
98------99-
-++4-+-+76-
+-+++8---+8
76-8++--8+9
5-+-+-76--9
--+6+6----+
+--6-9-++-9
+-7+---+++9

Generation = 45, Population = 114.
+7------++9
++--+-+++-+
++-8-+6+---
-++-7---+++
7-+--+-9+-+
---+++87+++
--8+---+---
--+-7+7+-5+
9--+-+9--5-
+7-8++7-8++
+---+--++58
-7-+-9+-+9-
--------8++
-++9+-6+--+
+--8-+-+---
-----+-+8++
+8---+-----
-+-6+--+--+
-+----+-++-
-9--++3+--+
-------++-+

Generation = 54, Population = 108.
-9+5-+--+-9
-+--+-+---+
+-+99-++--+
-+--9-5++-+
--+--+-----
-6++--+9+-+
+--+----+-+
8--99++---+
-++--++-8--
+--8+-+-++-
--+---9+---
-79---+--+-
----+++--++
-++++-----+
+-++--+--+-
----+---9++
--+++---+-+
+++--+-+--+
---+++-++++
-+----6++--
++++++----+

Generation = 63, Population = 101.
-9+--+-++--
-++-++-+++-
--+----++--
--++-+8---+
+-+--+++--+
8---+-+--++
---+-+--+--
+-++----+--
----++-9+-+
++++-++----
-+-+--+-+--
5--++-+--+-
--+--+--++-
---++-+--+-
-+--+----++
-9++-+-+---
+-+-++-++-+
-+-+---+---
--+++++-++-
+-----8----
++--++-+-++

Generation = 72, Population = 114.
---+-----++
-++-++-++++
-+--+--++-+
----++8++++
-+-++-+--++
--++-++----
++-+-+--+--
-+-+---+-++
----+----++
+-+++++--++
+-++-+++--+
-+--+---+-+
+----++-+--
+-++-+++-+-
-++++-+-+-+
+---+-+++-+
-+-----++++
----+++-+++
--++++----+
-+--+-+-++-
+--+----++-

Generation = 81, Population = 119.
---++-9-++-
++-+---++-+
+-++-++-+--
7+------+++
-++-+++-+--
+-+-++----+
++-+--++---
--++++++-+-
--++--+---+
----+-++-++
-+++----+-+
8+++++++--+
--++--+-+--
++-++++----
--++-++++-+
+-+----+++-
-+++++-+-++
-+-++-+--++
-------+++-
+--+++-+---
+++--+--+++

Generation = 90, Population = 123.
-++++++--+-
+++-+--++--
-++---+---+
-++-+--+-+-
--+++-+---+
+++-++--++-
-++++-----+
-+-++-++--+
+--++++++++
-++++--+++-
++--+++--+-
++-----+-+-
+-+++--+---
-+--++-+++-
+--++++++++
+---+++-++-
+-++--+-+-+
+-++++++---
-+-+-+-----
--+---++++-
--++-+--++-

*** Life<FredkinCell> 19x19 ***

Generation = 0, Population = 44.
00----0-----0------
0---0------------0-
---0------0--------
------------0------
-----0-------------
-0-----0-0--0------
-----------------0-
---------------0---
-0----------0------
----------0----0-0-
------0---0--0-----
-------0----------0
---------0------0--
----0---------0----
-----------0-------
--------00---------
----0-----0--------
----------0-00-00--
--------0-0----0---

Generation = 6, Population = 180.
163-31-02-0-2---010
3--0102122----0-1--
--0-002-1-0-2-10---
0-000-11-1-01003310
-11-1-1-1--10-0----
01-0-3-2-25---1-30-
13--021--------2---
0--1-00002--3101-00
--1---11-1----1--3-
--0-100--02-33-01-3
0---21-00-23----1-0
0---02--3---1-0--2-
------1--05-04110-3
0-001111-2---311--2
10------1-20-21-1-0
1-0152-5--1-4-0---0
0-0-0---0-213---200
--0--0---50--2--23-
0---1----06-1-03---

Generation = 12, Population = 161.
284--23----03-1-01-
-2-1--833---3----20
303-24--5-23-3530-1
2--1---542-1---44--
-2--2-22244-02----0
-50---2---631-44---
43--2-10-0-1--0-0--
---1-1-3--1--4-1---
---2257-4-2---3316-
1--1--04--32-50--2-
--234--1------6-2-3
41----00---2--2-53-
3-----------153--15
-33023----4-392---2
2--2-1---14--------
-31-------34---3-20
3-2---3--1---0-3530
1--3421-4--4-312---
20---0---2-1-3--1-2

Generation = 18, Population = 168.
3---9------2--40-3-
------9----2-62322-
----5-438---4-65-24
442--0-5634-2------
----3043-751-8-321-
1-2349-3---622---4-
---3---0-0-36-13-2-
--2--32----46-4230-
46--2----56217-7---
--424--411-4----3-6
5--7-6-2--45-37----
5-1--33-712--1-565-
--0-4-351--13------
----245---5-3-3-61-
4-16--5-436--3---22
--24--57--5864--2-1
---2-144--52--356-2
3----42-----442----
2-2-127--48-3---152

Generation = 24, Population = 155.
6--3--4--715-----9-
-5--8-------6-4-654
4--2-66593---86-4--
--4----7--5-------5
34-23--68-723+2----
--3----4--7-3-4--6-
+435--3-2---8-2--2-
33---636-----75340-
7+-54+9-6--4-97--6-
-38-63----5-8--35-6
82696-362--54491--3
----------2----8---
-2--5665-2853-54-2-
4-3--69---8-7+---1-
-6---4--7--53-8--24
38------65-----644-
--53-1--1-----4---5
9-4--6--7-6--6-3---
------8-1--4-8667--

Generation = 30, Population = 176.
-99--5--59--63---+6
-6--+----55-++74-7-
--8----------+--6-7
-4-5----------366--
96-67-9-++9-5-4+49-
---6-+-5-69-4--75-7
+-5-53-5-23+-5-622-
66--29--2-3799---24
-----++---944+-+3-6
5--4-4-7-254-77----
-69+--5--+5--5----5
+--6-3-2-4-6---9---
-33--78+2-+7-+95-49
-95--8-7-8---+44-1-
7-5+---3-4+8-8+4---
-9279-9--69+----57-
---6-56----3-55-+85
-4-6--9-+6-56--46-5
6-5-95--5-+44--+--4

Generation = 36, Population = 161.
9++--66----77-7-8+-
-9-4--+54---+----+9
619-7+--+-+6-++87-7
+--7---++8-7---78--
-7--8-99+++-6+----1
-+8---4---++6-5+---
+8--6-56-2-+--3-3--
---4-+-9--4--+-4---
---97++-9-+---8+5+-
5--6--17--66-98--6-
--9+7--6------+-5-6
+6----33---8--4-89-
+-----------4++--4+
-+844+----+-++5---5
7--+-7---6+--------
-+4-------++---9-93
8-7---7--2---6-8++5
+--++++-+--7-+35---
85---6---+-6-+--9-8

Generation = 42, Population = 168.
+---+------9--+4-+-
------+----6-+887+-
----+-69+---8-++-5+
+86--5-++9+-7------
----92++-++5-+-+6+-
3-++++-7---+75---+-
---9---6-2-++-46-4-
--5--+5----++-8572-
++--7----++67+-+---
--+7+--753-8----9-9
+--+-+-7--7+-9+----
+-3--56-+54--8-+9+-
--3-9-9+4--86------
----4++---+-+-6-+3-
9-7+--9-+8+--9---87
--5+--++--++96--7-4
---8-78+--84--8++-7
+----++-----8+4----
8-6-+8+--++-6---9+8

Generation = 48, Population = 155.
+--5--7--+3+-----+-
-+--+-------+-+-+++
7--4-+8++7---++-+--
--8----+--+-------9
+9-+9--++-+69+6----
--+----8--+-8-5--+-
+98+--7-7---+-5--4-
88---+6+-----+9682-
++-+9++-+--8-++--+-
-7+-+7----8-+--5+-9
+9++9-7+6--+9++4--6
----------4----+---
-5--++++-6++6-+8-5-
7-8--++---+-++---3-
-+---+--+--+6-+--89
8+------+9-----+9+-
--+9-7--3-----9---+
+-+--+--+-+--+-6---
------+-7--9-++++--

Generation = 54, Population = 176.
-++--9--++--+6---++
-+--+----7+-+++9-+-
--+----------+--+-+
-8-+----------69+--
++-++-+-+++-+-8+8+-
---+-+-9-++-9--+7-+
+-+-95-+-46+-+-954-
++--4+--4-6+++---47
-----++---+8++-+7-+
9--9-8-+-488-++----
-+++--9--+8--+----8
+--+-5-5-8-+---+---
-66--+++5-++-++9-7+
-++--+-+-+---+79-3-
+-++---6-9++-++8---
-+5++-+--+++----++-
---+-++----5-++-+++
-8-+--+-+8-8+--7+-7
+-9-++--+-+97--+--+

Generation = 60, Population = 161.
+++--+9----++-+-++-
-+-7--+75---+----++
92+-++--+-+9-++++-+
+--+---+++-+---++--
-+--+-+++++-++----2
-++---6---+++-6+---
++--+-9+-4-+--6-6--
---7-+-+--7--+-7---
---++++-+-+---++9+-
9--+--2+--9+-++--+-
--+++--+------+-8-9
++----66---+--6-++-
+-----------7++--7+
-++86+----+-++8---8
+--+-+---++--------
-+7-------++---+-+6
+-+---+--3---+-++++
+--++++-+--+-+58---
++---+---+-+-+--+-+

*** Life<FredkinCell> 25x17 ***

Generation = 0, Population = 187.
---0-----000-0-0-
----00-0---00--0-
---000--0--0--0--
0-00--0-0---0-0--
00--00---0---00--
0---0-0-00-------
0-0-0---00000-00-
--0--0-0-0--00000
---00-0----0000--
00-0---00-0--0-0-
--0-0---00---0000
--000000---0----0
0--00-0-0-00--000
-00--0-00---0--0-
000000-000-0--00-
-00000-00--0--000
-00--000-0---0--0
----000-----0-00-
0-----0--0-------
0--------0-0-----
0--00---0-0-00---
0-0000-00-0---000
---00----0---00--
-00000----000---0
--00-0--0000---0-

Generation = 7, Population = 180.
-1-21013--103-220
-1---00-----3-2--
21-0--0--4-2---23
3---24-1---1-3-35
---0--4024-0--2--
-----1-22-240--2-
---1-----11--23--
---4---0-1-1--03-
-2-------30----3-
-33-1---0----0-1-
---1-0-13523141-5
--322---12-----00
4-2---4--1-12--1-
-3012---3--0-21--
5--553-2--1-1-1--
---3---4----422-2
-------3------003
1-31-2-01-1--3---
----1-3---4-2---2
-2231-3--3-0-2-02
32-0--0----------
3-3-1-13--11425--
13-4----25--22--3
-353---20-4-2-4--
1-01--4--1-4---01

Generation = 14, Population = 230.
-3-7---6---15-432
---0-5-2-4-76--6-
22-0--3--847-1-2-
---25--444---40--
--1-12805630-55--
-21---3735----23-
---3312----23-545
256--2--0331-6--6
4414-6135---241--
-5--3-25-1---565-
---6513--756---3-
----762--7-1244-1
----4-84--5-3-222
----251435230523-
---7-50532-55---3
3-25--574--47465-
-2-2-163-31-2310-
34---272-5542342-
--3-61-----35-4-3
1-3--54--5------4
4--3--20---22724-
--5-67-53-34-47-6
4--84--52-1--3-15
36---035-464--415
4-0-3--264-72-34-

Generation = 21, Population = 218.
737-12--35-371754
-4--3--57-6-7358-
-5603-5-59-8-6---
-5-7--26--7-46-65
---4-2--7--1-5--2
4-65-678--38--7--
-256-6--2-23-5---
47--7--2-45--84--
5---2-48---3-8-4-
78--51---4--2-882
-5---6--89-9-+2-8
---5+---2+4-37-03
-4726----8-352--3
372---35--5---7--
8--+671-622-79---
---7758-5----7+-3
9---3-7-4---4--34
5-7-4-8776--78-63
-964+-9--67-7-824
6-6--594------6--
--5--4--37---+-62
525---26464-8--08
-43-524---3-6-217
---62-48-6-----2+
6534-+-5+-4-5--6-

*** Life<FredkinCell> 7x12 ***

Generation = 0, Population = 84.
000000000000
000000000000
000000000000
000000000000
000000000000
000000000000
000000000000

Generation = 9, Population = 32.
---331133---
---0-11-0---
---1-11-1---
---0-11-0---
---1-11-1---
---0-11-0---
---331133---

Generation = 18, Population = 32.
3---3--3---3
2-2-1--1-2-2
1---1--1---1
2---1--1---2
1---1--1---1
2-2-1--1-2-2
3---3--3---3

Generation = 27, Population = 36.
----6--6----
24--------42
--64488446--
-163-88-361-
--64488446--
24--------42
----6--6----

Generation = 36, Population = 28.
-66------66-
-66------66-
-58------85-
-48------84-
-58------85-
-66------66-
-66------66-

Generation = 45, Population = 48.
+----55----+
8++-7--7-++8
89+-+--+-+98
88+-+--+-+88
89+-+--+-+98
8++-7--7-++8
+----55----+

Generation = 54, Population = 44.
+--+9++9+--+
---9----9---
+--++++++--+
+--++++++--+
+--++++++--+
---9----9---
+--+9++9+--+

Generation = 63, Population = 44.
-++-9++9-++-
-++-+--+-++-
----+--+----
++++++++++++
----+--+----
-++-+--+-++-
-++-9++9-++-

Generation = 72, Population = 28.
---+-++-+---
---+-++-+---
---+-++-+---
---+-++-+---
---+-++-+---
---+-++-+---
---+-++-+---

Generation = 81, Population = 36.
++-++--++-++
+---+--+---+
+---+--+---+
+---+--+---+
+---+--+---+
+---+--+---+
++-++--++-++

Generation = 90, Population = 48.
-+++-++-+++-
++--------++
-+++-++-+++-
-+++-++-+++-
-+++-++-+++-
++--------++
-+++-++-+++-

*** Life<FredkinCell> 4x27 ***

Generation = 0, Population = 108.
000000000000000000000000000
000000000000000000000000000
000000000000000000000000000
000000000000000000000000000

Generation = 5, Population = 62.
1-213-----------------312-1
30-3-11111111111111111-3-03
30-3-11111111111111111-3-03
1-213-----------------312-1

Generation = 10, Population = 62.
33535-243-4444444-342-53533
-3---3-3-4-------4-3-3---3-
-3---3-3-4-------4-3-3---3-
33535-243-4444444-342-53533

Generation = 15, Population = 48.
5----4----6-454-6----4----5
7-27-6-44-6--5--6-44-6-72-7
7-27-6-44-6--5--6-44-6-72-7
5----4----6-454-6----4----5

Generation = 20, Population = 54.
---6---8-----------8---6---
+638376-766-868-667-673836+
+638376-766-868-667-673836+
---6---8-----------8---6---

Generation = 25, Population = 66.
-8---+6-86+-+9+-+68-6+---8-
+-6-6-868-84+-+48-868-6-6-+
+-6-6-868-84+-+48-868-6-6-+
-8---+6-86+-+9+-+68-6+---8-

Generation = 30, Population = 88.
+-67++7-8-+7+++7+-8-7++76-+
++8+8-+7+9+-+++-+9+7+-8+8++
++8+8-+7+9+-+++-+9+7+-8+8++
+-67++7-8-+7+++7+-8-7++76-+

Generation = 35, Population = 58.
--7+++9-------------9+++7--
+---++-++++8+++8++++-++---+
+---++-++++8+++8++++-++---+
--7+++9-------------9+++7--

*** Life<FredkinCell> 14x7 ***

Generation = 0, Population = 97.
0000000
0000000
0000000
0000000
0000000
0000000
0000000
0000000
0-00000
0000000
0000000
0000000
0000000
0000000
