*** Life<Cell> 15x3 ***

Generation = 0, Population = 20.
--0
000
---
0-0
--0
-00
-0-
0-0
0--
--0
-00
---
00-
-0-
--0

Generation = 1, Population = 22.
0-1
1--
-0-
--1
0--
0--
-10
10-
10-
0-1
01-
0-0
1-0
-1-
---

Generation = 2, Population = 22.
1--
*-0
---
0--
100
1-0
0-1
-1-
*--
---
1*0
-01
*01
---
-0-

Generation = 3, Population = 24.
*01
.--
--0
1-1
*--
-0-
11*
1--
.--
-01
*.-
01*
*1-
0-0
0-0

Generation = 4, Population = 28.
.-*
.0-
001
*-*
*-0
11-
-**
*-0
.00
-1*
*.-
1**
.-1
-11
1-1

Generation = 5, Population = 25.
.-.
*10
-1-
*0*
*01
--0
1.*
*--
*-1
--*
*.-
-.*
*1-
-**
-0*

Generation = 6, Population = 19.
.0.
**1
0-1
.-.
*1*
---
*..
*1-
.-*
-1.
.*-
-..
*-1
-..
1-*

Generation = 7, Population = 25.
*1*
*.-
11*
*0*
.-.
-10
**.
**-
*0*
0**
..0
1*.
.--
-..
--.

Generation = 8, Population = 13.
*-.
..-
***
*1*
*-.
--1
...
..-
.-.
-..
..1
**.
.1-
-..
--.

Generation = 9, Population = 18.
.1.
*.1
*.*
.**
*-*
11-
...
..-
.-.
-..
.*-
***
**1
-..
--.

Generation = 10, Population = 14.
.-.
*.*
*.*
*.*
*-*
-*-
...
..-
.-.
-..
**-
...
*.-
0*.
--.

*** Life<Cell> 3x2 ***

Generation = 0, Population = 2.
--
-0
-0

Generation = 1, Population = 5.
-0
01
01

Generation = 2, Population = 2.
-1
-*
--

Generation = 3, Population = 4.
0*
0.
-1

Generation = 4, Population = 2.
-*
1.
--

Generation = 5, Population = 1.
-.
-.
0-

Generation = 6, Population = 2.
-.
1.
-1

Generation = 7, Population = 1.
0.
-.
--

Generation = 8, Population = 1.
-.
1.
--

Generation = 9, Population = 2.
0.
-.
0-

Generation = 10, Population = 1.
-.
-.
-1

*** Life<Cell> 11x2 ***

Generation = 0, Population = 12.
--
00
-0
0-
0-
--
--
00
00
00
0-

Generation = 1, Population = 15.
00
1-
01
1-
10
0-
00
--
11
1-
1-

Generation = 2, Population = 12.
-1
-0
1*
-0
*1
-0
-1
--
-*
--
*0

Generation = 3, Population = 12.
0*
--
**
1-
**
--
0*
--
1.
1-
.1

Generation = 4, Population = 10.
1.
--
**
-0
**
--
1.
-0
*.
*-
.-

Generation = 5, Population = 11.
-.
-0
**
1-
**
-0
-.
0-
**
.0
.-

Generation = 6, Population = 14.
-.
-1
**
-0
**
-1
1.
1-
**
*1
.1

Generation = 7, Population = 13.
-.
-*
**
1-
**
0*
**
--
..
.*
**

Generation = 8, Population = 13.
-.
-*
**
-0
..
1.
**
10
..
**
**

Generation = 9, Population = 10.
-.
-*
**
-1
..
**
..
--
..
**
**

Generation = 10, Population = 10.
-.
-*
**
-*
**
..
..
--
..
**
**

*** Life<Cell> 3x2 ***

Generation = 0, Population = 2.
-0
-0
--

Generation = 1, Population = 5.
01
01
-0

Generation = 2, Population = 2.
--
-*
-1

Generation = 3, Population = 4.
-1
0.
0*

Generation = 4, Population = 2.
--
1.
-*

Generation = 5, Population = 1.
0-
-.
-.

Generation = 6, Population = 2.
-1
1.
-.

Generation = 7, Population = 1.
--
-.
0.

Generation = 8, Population = 1.
--
1.
-.

Generation = 9, Population = 2.
0-
-.
0.

Generation = 10, Population = 1.
-1
-.
-.

*** Life<Cell> 14x3 ***

Generation = 0, Population = 6.
---
--0
---
--0
---
0--
---
-0-
---
---
---
0--
-0-
---

Generation = 1, Population = 14.
--0
-0-
---
-0-
0-0
-0-
00-
0-0
-0-
---
0--
---
--0
-0-

Generation = 2, Population = 10.
---
0--
---
---
---
01-
---
1--
---
00-
-0-
0-0
---
0--

Generation = 3, Population = 18.
0--
-0-
0--
---
00-
1*0
-0-
-0-
-0-
1-0
01-
-0-
--0
-0-

Generation = 4, Population = 11.
---
0-0
---
-0-
---
-.1
---
1-0
-1-
*--
---
-1-
-0-
0--

Generation = 5, Population = 19.
0-0
---
000
0-0
-00
-.-
0--
-0-
0--
.--
01-
0*0
-10
---

Generation = 6, Population = 12.
---
-0-
---
1--
-1-
1*1
---
1-0
---
*0-
---
-.-
---
-00

Generation = 7, Population = 22.
-0-
0-0
00-
---
0*-
***
-0-
---
-10
.10
01-
-.-
-10
011

Generation = 8, Population = 12.
---
1--
-1-
---
-.-
..*
-1-
--0
0--
.*-
1--
0.0
---
1*-

Generation = 9, Population = 19.
0--
---
--0
-0-
-.0
...
0-0
1--
--0
**0
*-0
1*-
-10
*.1

Generation = 10, Population = 16.
-0-
1-0
---
1-0
-.-
.*.
1--
*0-
--1
*.1
.-1
-.0
0--
..*

*** Life<Cell> 16x2 ***

Generation = 0, Population = 8.
--
0-
--
--
00
--
--
--
--
-0
-0
0-
-0
--
-0
--

Generation = 1, Population = 16.
0-
-0
0-
00
11
00
--
--
-0
01
-1
-0
--
--
0-
-0

Generation = 2, Population = 16.
--
0-
10
1-
**
--
00
-0
-1
1*
--
01
-0
0-
--
--

Generation = 3, Population = 14.
0-
1-
*1
-0
**
--
1-
--
--
**
--
1-
01
--
0-
--

Generation = 4, Population = 17.
10
--
*-
1-
**
-0
-0
0-
01
..
-1
*-
-*
-0
-0
0-

Generation = 5, Population = 17.
*1
-0
.1
--
**
--
-1
10
-*
**
--
*1
-*
0-
-1
--

Generation = 6, Population = 15.
*-
--
.*
1-
..
0-
-*
*1
0.
**
--
*-
0*
-0
--
-0

Generation = 7, Population = 13.
.1
10
..
--
..
--
1*
*-
-.
**
-1
*-
-*
-1
--
0-

Generation = 8, Population = 20.
**
*-
..
--
..
00
-*
*-
-*
**
0*
*1
-*
0*
01
-0

Generation = 9, Population = 15.
**
*-
..
--
..
1-
1*
*1
0*
..
1.
.*
0.
-.
-*
-1

Generation = 10, Population = 15.
**
*-
..
--
..
*-
*.
.*
-*
**
-.
**
-.
0.
0.
0*

*** Life<Cell> 15x12 ***

Generation = 0, Population = 99.
--0--0--0-0-
00000-0000--
--0-000-----
000---00-000
00--0--00000
00--000-0---
00-0--000--0
---0--0-0000
--000-0-00--
----0--00---
-00000-000-0
--00000-00-0
00-0-00-0---
0000-0-----0
00000-0000--

Generation = 1, Population = 86.
0-1-----10-0
1-------11--
-0-0--100-00
-1-0----0-1-
11-01-0-111-
110-------0-
---1--1-1--1
00---0-011--
-011--101--0
-0-0----10-0
0111--0----1
00--1--01--1
----01--1---
1-110100-00-
-111101--100

Generation = 2, Population = 72.
1--0---0----
*-00--0-*---
-1-100*-10-1
---------0--
-*0-*-----*0
-*100-----1-
----0--0*---
1---0----*0-
-1--0-*1*001
----0----1--
-----0---00-
----*--1-00*
-00-1--0*-00
-0-*--110---
-****1--0-11

Generation = 3, Population = 90.
*0-10-------
*011--10*--0
--0---*-----
--00-00--1--
1*-0*0----*1
1**-10-000*-
000--011*---
---0-00-1.--
--11--.-.-1*
-0-01-00--00
----0-0001--
-000*-0*1--.
0-10*1-1.0--
1--.0-**10--
0*.***--1-**

Generation = 4, Population = 84.
*-1-10001--0
*1*--0--.10-
0--1--.-10-1
0---0--00--0
-.--.1-011.*
*..0-10-1-*-
-1---1**.-0-
1001---0**00
--**-0.1.0-*
0-0---------
--11--1-1*-1
-111.0-.-0-.
10-1.*--.10-
--1.--..*--0
-*.***--*1*.

Generation = 5, Population = 76.
*0*-*1--*---
*-*--1-0.-10
-----0.---0*
11----0-111-
-.-0.*0--*.*
...--*--*0*-
0*--0-...---
*11-0--1..1-
--..--**.11*
---0-0001---
0-*-0---**--
--**.1-.---.
*--*..0-*-1-
10-.0-..*00-
0.***.10*-*.

Generation = 6, Population = 104.
*-*-*-0-.000
*1*1----.1--
-10-01.01-1.
**00-01-**-0
1.0-**-01..*
...0-*-0*1*-
-.-11-..*0--
***-10-****-
01**0-...***
0---1111-100
--*--01-**0-
-1*..--*-00.
*--*.*--*1*0
*1-.11*..-10
1.*****-*1*.

Generation = 7, Population = 83.
*0*1.--0.--1
**.*0110.*10
0*1-1-.1---.
*.-1-1*-..11
*.1-..0-*..*
..*1-*--.**-
0*---1...10-
*..-*1-*...-
1*..10......
1----***1*--
0-*1----..1-
-****--*-11.
*0-*.*--**.-
**-.--...0*-
*.**..*-.-**

Generation = 8, Population = 67.
*1.-.1-1*0-*
....1--1..--
1.*-*1.*10-.
*.0-0**-..*-
..*0..1-...*
*.**-*--*..-
-*-1--..*--1
...1.*-....-
**..-1......
--00-***-*--
11.--01-..*1
0....-0.1--.
.11*..0-...-
..-*-1..*-.-
*.*....0.-**

Generation = 9, Population = 62.
.*.-.---*1-.
*..**11-..-0
*..-.-.*-1-.
..-1-..-***-
...-..*0....
....-.-0...-
-*0-1-...10-
**.*..0....0
.*.*1-......
-011-..*-.-0
-**10-*-****
1....--.-11.
.*-***11...-
..1*--**.0.0
.......-.1..

Generation = 10, Population = 75.
...1*101.*0.
**..*-*-.*1-
...-.1**1*-.
..0-0.*0.**1
...0..*-.*..
....1.-1*..-
-*11-1...*1-
*....*-...*-
....*1......
11**1*.*-*-1
-..*1-.0*..*
-....1-.---*
.*1****-.*.0
..**--.*.1*-
.......0***.

*** Life<Cell> 11x3 ***

Generation = 0, Population = 11.
--0
000
-00
--0
---
---
0--
--0
0--
---
0--

Generation = 1, Population = 15.
0-1
111
--1
--1
--0
0--
-00
-0-
-00
---
-0-

Generation = 2, Population = 17.
10*
--*
0--
-0-
001
---
--1
0-0
0-1
--0
0-0

Generation = 3, Population = 18.
*-*
--*
--1
01-
11*
00-
00*
1--
1--
-0-
--1

Generation = 4, Population = 16.
.-.
11*
0-*
--1
*-*
110
11*
--0
*--
---
---

Generation = 5, Population = 17.
.0.
--*
10*
-1-
*1*
**1
-*.
--1
.01
0--
---

Generation = 6, Population = 13.
.-.
11*
*1*
0-1
.-.
..-
-..
-0*
.1-
--0
0--

Generation = 7, Population = 14.
.0.
-**
.*.
11*
.-.
..-
-..
1-*
.*1
0--
-01

Generation = 8, Population = 16.
.1*
1**
...
***
.1.
..-
1..
-0*
*.-
-0-
-1*

Generation = 9, Population = 18.
*-*
*.*
...
***
***
..-
-*.
11.
*.1
-1-
0-*

Generation = 10, Population = 14.
.-.
...
*.*
*.*
*.*
*.1
-*.
--*
*.-
0-0
-1.

*** Life<Cell> 6x11 ***

Generation = 0, Population = 25.
-0--00--00-
------0--0-
00-0---0--0
----0-0-000
-0--00-0-0-
0--0---0---

Generation = 1, Population = 34.
0-0011-01-0
0--00----1-
11----0--01
0---10--11-
--0--10101-
--0--00100-

Generation = 2, Population = 42.
1-11**-1*0-
------00-*0
**00---0-1*
1-00*-0--*-
0010-*1*-*0
-0100-1*1-0

Generation = 3, Population = 30.
--*-**0-.--
-0--0-110.-
*.1---01-*.
--1-.0101.0
-1-1-.-.0.-
--*110-.*01

Generation = 4, Population = 28.
--.-*.--.--
--0010**1.-
..*00-1*-*.
1-*-.1*1-.-
0--*-.1.-.-
--**-11.*-*

Generation = 5, Population = 27.
--.-*.01.--
-0-1--..*.-
...1--*.0..
*-*0.*.-1.-
111*0.-.0.0
00**-*-*.-.

Generation = 6, Population = 25.
-0.-..1*.--
0--*--*.*.-
.*.-0-..-*.
*0.1.*.1-.0
**-.1*-*1*-
-1..1.-..-.

Generation = 7, Population = 25.
--.1..-*.--
-00.-0*.*.-
.*.1--**-*.
.1.-.*.*-.-
..1*-*-*-*-
-*..**-.*0.

Generation = 8, Population = 34.
-0*-..-*.--
0-1*11..*.-
**.-00..0..
.*.-.*.*1.-
.***1*-*1*0
0.****1.*-.

Generation = 9, Population = 21.
-1*-*.1..--
1--.*-***.-
*..--1..-*.
...1....*.0
*...*.1.-.1
-.....*.*-.

Generation = 10, Population = 24.
-*.-..*..--
*-1**1***.-
...1--*.0*.
...-**....1
.....**.-.*
0....*.*.0.

*** Life<Cell> 2x13 ***

Generation = 0, Population = 16.
-00-0000--00-
00-000--00--0

Generation = 1, Population = 12.
--10-1-1--11-
1-011---11---

Generation = 2, Population = 11.
00--0-----**0
---**---**-0-

Generation = 3, Population = 19.
111-11--0-**1
100**0-0.*01-

Generation = 4, Population = 10.
-*-0--0--0..*
-11..---**1--

Generation = 5, Population = 17.
1*1-11-1-1*..
1-*..-00***10

Generation = 6, Population = 12.
-.--**0*0-...
*1**.-11...-1

Generation = 7, Population = 13.
1*1-**1.11...
.-***---*..1-

Generation = 8, Population = 15.
**-0****-*...
.-*.*-11**.-1

Generation = 9, Population = 12.
.*11*...1*...
.-*.*0-*.*.1-

Generation = 10, Population = 13.
.**-**..***..
.-*.*1-..**-1

*** Life<Cell> 7x5 ***

Generation = 0, Population = 19.
-0-00
-00--
00---
--000
--0--
0000-
-0000

Generation = 1, Population = 22.
01011
-11-0
1-000
0---1
0--00
11---
--111

Generation = 2, Population = 17.
1*1--
0-*--
*0--1
-000-
--01-
-*---
0-*-*

Generation = 3, Population = 14.
-.-1-
--*00
*-0--
--1--
-0--0
-*000
-0.-.

Generation = 4, Population = 20.
-.-*-
01*11
.---1
0-*01
010-1
1*---
01.1.

Generation = 5, Population = 21.
1*-*-
1-**-
*0-0-
10*-*
1*-1*
*.-00
--*-.

Generation = 6, Population = 14.
-*1*1
--.*1
.--1-
*-.-*
*.0-.
*.---
01.-.

Generation = 7, Population = 11.
1.-.-
-1..-
.-0*1
.0.-.
*.-1.
*.0--
-*.-.

Generation = 8, Population = 11.
-.-.-
--**1
.01**
.-.-*
*.--.
*.---
-*.-.

Generation = 9, Population = 10.
-.1*1
--..-
.1*..
.0*-*
..--.
**---
-..-.

Generation = 10, Population = 12.
-.***
-1..1
.-**.
.-*-.
*.0-.
..0--
0..-.
